[
  "/gw/ac/api/v1/login:*:ANONYMOUS",
  "/gw/ac/api/v1/login/encrypt:*:ANONYMOUS",

  "/gw/ac/api/v1/kubernetes/namespaces/*/role_assignments:POST:NS_ADMIN",
  "/gw/ac/api/v1/kubernetes/namespaces/*/role_assignments:GET:NS_ADMIN,DEVELOPER",
  "/gw/ac/api/v1/kubernetes/namespaces/*/role_assignments/*:POST:NS_ADMIN",
  "/gw/ac/api/v1/kubernetes/namespaces/*/users:GET:NS_ADMIN,DEVELOPER,SYS_ADMIN",
  "/gw/ac/api/v1/kubernetes/namespaces/*/my_roles:GET:NS_ADMIN,DEVELOPER,SYS_ADMIN",

  "/gw/ac/api/v1/sys/**:*:SYS_ADMIN",

  "/gw/ac/api/v1/role_assignments:GET:NS_ADMIN,DEVELOPER,SYS_ADMIN",

  "/gw/ac/api/v1/token/**:*:ANONYMOUS",
  "/gw/ac/api/v1/key/**:*:ANONYMOUS",

  "/gw/ac/api/v1/users:GET:NS_ADMIN,DEVELOPER,SYS_ADMIN",
  "/gw/ac/api/v1/users_search:GET:NS_ADMIN,DEVELOPER,SYS_ADMIN",
  "/gw/ac/api/v1/users/*:GET:NS_ADMIN,DEVELOPER,SYS_ADMIN",
  "/gw/ac/api/v1/user_profile:*:NS_ADMIN,DEVELOPER,SYS_ADMIN",

  "/gw/ac/api/v1/health:GET:ANONYMOUS",
  "/gw/ac/api/v1/swagger.json:GET:ANONYMOUS"
]